{
  "project_info": {
    "project_number": "525755783081",
    "firebase_url": "https://ethos-test2.firebaseio.com",
    "project_id": "ethos-test2",
    "storage_bucket": "ethos-test2.appspot.com"
  },
  "client": [
    {
      "client_info": {
        "mobilesdk_app_id": "1:525755783081:android:c045701534b0f96a",
        "android_client_info": {
          "package_name": "com.test2"
        }
      },
      "oauth_client": [
        {
          "client_id": "525755783081-hbougc355ti8ve1ob44qckd35k4sunnr.apps.googleusercontent.com",
          "client_type": 3
        }
      ],
      "api_key": [
        {
          "current_key": "AIzaSyBXS-Ws5wjD1v2mzPT_WjOrpiUPfN3YWIc"
        }
      ],
      "services": {
        "analytics_service": {
          "status": 1
        },
        "appinvite_service": {
          "status": 1,
          "other_platform_oauth_client": []
        },
        "ads_service": {
          "status": 2
        }
      }
    }
  ],
  "configuration_version": "1"
}